<svg version="1.1" xmlns="http://www.w3.org/2000/svg" width="1111" height="512" viewBox="0 0 1111 512">
<path d="M0 221.177h962.553l-163.154-163.142 58.048-58.048 253.406 253.406-258.606 258.671-52.849-52.849 163.154-163.154h-962.553z"></path>
</svg>
