<svg version="1.1" xmlns="http://www.w3.org/2000/svg" width="40" height="13" viewBox="0 0 1568 512">
    <path d="M787.095 491.884c301.201 0 574.013-121.033 773.989-316.166l-148.138-150.673c-161.716 158.082-382.677 255.651-625.865 255.651-246.887 0-469.087-100.039-632.028-260.584l-148.137 149.436c199.982 198.84 475.264 322.342 780.165 322.342z"></path>
</svg>
